rtl/WES207_basic/rtl/lvds_tb.vcd
$date
	Wed May 10 12:02:09 2023
$end
$version
	ModelSim Version 2021.4
$end
$timescale
	1ps
$end

$scope module lvds_tb $end
$var reg 1 ! clk $end
$var reg 1 " reset_n $end
$var reg 1 # SCLK $end
$var reg 1 $ SSB $end
$var reg 1 % MOSI $end
$var reg 1 & MISO $end
$var reg 8 ' tx_d [7:0] $end
$var reg 7 ( reg_addr [6:0] $end
$var reg 1 ) addr_dv $end
$var reg 8 * rx_d [7:0] $end
$var reg 1 + rxdv $end
$var reg 8 , check_data [7:0] $end
$var reg 8 - data_from_gpo [7:0] $end
$var reg 8 . data_to_gpo [7:0] $end
$var reg 8 / data_to_led [7:0] $end
$var reg 8 0 data_to_dac [7:0] $end
$var reg 8 1 data_from_dac [7:0] $end
$var reg 8 2 data_from_led [7:0] $end
$var reg 2 3 to_lvds [1:0] $end
$var wire 1 4 tx_en_dac $end
$var wire 1 5 rx_en_dac $end
$var wire 1 6 tx_en $end
$var wire 1 7 rw_out $end
$var wire 1 8 rx_en_gpo $end
$var wire 1 9 rx_en_led $end
$var wire 1 : tx_en_gpo $end
$var wire 1 ; tx_en_led $end

$scope task do_spi_read $end
$var reg 8 < from_host [7:0] $end
$var reg 8 = data_to_host [7:0] $end
$var integer 32 > i $end
$upscope $end

$scope task do_spi_write $end
$var reg 16 ? from_host [15:0] $end
$var integer 32 @ i $end
$upscope $end

$scope task do_transmit_lvds $end
$upscope $end

$scope module tx_dac_fsm_inst $end
$var parameter 15 A symbol $end
$var wire 1 B clk $end
$var wire 1 C reset_n $end
$var wire 1 4 rd_en $end
$var wire 1 5 wr_en $end
$var wire 1 D dacreg_data_in [7] $end
$var wire 1 E dacreg_data_in [6] $end
$var wire 1 F dacreg_data_in [5] $end
$var wire 1 G dacreg_data_in [4] $end
$var wire 1 H dacreg_data_in [3] $end
$var wire 1 I dacreg_data_in [2] $end
$var wire 1 J dacreg_data_in [1] $end
$var wire 1 K dacreg_data_in [0] $end
$var wire 1 L dacreg_data_out [7] $end
$var wire 1 M dacreg_data_out [6] $end
$var wire 1 N dacreg_data_out [5] $end
$var wire 1 O dacreg_data_out [4] $end
$var wire 1 P dacreg_data_out [3] $end
$var wire 1 Q dacreg_data_out [2] $end
$var wire 1 R dacreg_data_out [1] $end
$var wire 1 S dacreg_data_out [0] $end
$var reg 2 T to_lvds [1:0] $end
$var reg 8 U dac_config_reg [7:0] $end
$var reg 1 V tx_en $end
$var reg 4 W state_reg [3:0] $end
$var reg 4 X next_state [3:0] $end
$var reg 6 Y zctr [5:0] $end
$var reg 6 Z dctr [5:0] $end
$var reg 1 [ dctr_en $end
$var reg 1 \ zctr_en $end
$var reg 1 ] ld_sym $end
$var reg 2 ^ data_out [1:0] $end
$var reg 1 _ curr_sym $end
$var reg 5 ` sym_ctr [4:0] $end
$var reg 4 a sym_pos [3:0] $end
$upscope $end

$scope module spi_slave_inst $end
$var parameter 32 b pktsz $end
$var parameter 32 c header $end
$var parameter 32 d payload $end
$var parameter 32 e addrsz $end
$var wire 1 f clk $end
$var wire 1 g reset_n $end
$var wire 1 h SCLK $end
$var wire 1 i SSB $end
$var wire 1 j MOSI $end
$var reg 1 k MISO $end
$var wire 1 l tx_d [7] $end
$var wire 1 m tx_d [6] $end
$var wire 1 n tx_d [5] $end
$var wire 1 o tx_d [4] $end
$var wire 1 p tx_d [3] $end
$var wire 1 q tx_d [2] $end
$var wire 1 r tx_d [1] $end
$var wire 1 s tx_d [0] $end
$var wire 1 6 tx_en $end
$var reg 7 t reg_addr [6:0] $end
$var reg 1 u addr_dv $end
$var reg 8 v rx_d [7:0] $end
$var reg 1 w rxdv $end
$var reg 1 x rw_out $end
$var reg 3 y sync_sclk [2:0] $end
$var reg 3 z sync_ss [2:0] $end
$var reg 2 { sync_mosi [1:0] $end
$var reg 2 | sync_tx_en [1:0] $end
$var reg 5 } bitcnt [4:0] $end
$var reg 1 ~ rw $end
$var reg 1 !! mosi $end
$var reg 1 "! sclk $end
$var reg 1 #! ssb $end
$var reg 1 $! sync_sclk_re $end
$var reg 1 %! sync_sclk_fe $end
$var reg 1 &! tx_en_re $end
$var reg 1 '! spi_start $end
$var reg 1 (! spi_end $end
$var reg 1 )! spi_active $end
$var reg 1 *! d_i $end
$var reg 8 +! d_o [7:0] $end
$var wire 1 ,! txdv $end
$upscope $end

$scope module regwrap_inst $end
$var wire 1 -! clk $end
$var wire 1 .! reset_n $end
$var reg 1 /! rx_en_gpo $end
$var reg 1 0! rx_en_led $end
$var reg 1 1! rx_en_dac $end
$var reg 1 2! tx_en_gpo $end
$var reg 1 3! tx_en_led $end
$var reg 1 4! tx_en_dac $end
$var reg 8 5! tx_d [7:0] $end
$var wire 1 6! reg_addr [6] $end
$var wire 1 7! reg_addr [5] $end
$var wire 1 8! reg_addr [4] $end
$var wire 1 9! reg_addr [3] $end
$var wire 1 :! reg_addr [2] $end
$var wire 1 ;! reg_addr [1] $end
$var wire 1 <! reg_addr [0] $end
$var wire 1 =! addr_dv $end
$var wire 1 >! rxdv $end
$var wire 1 7 rw_out $end
$var wire 1 ?! rx_d [7] $end
$var wire 1 @! rx_d [6] $end
$var wire 1 A! rx_d [5] $end
$var wire 1 B! rx_d [4] $end
$var wire 1 C! rx_d [3] $end
$var wire 1 D! rx_d [2] $end
$var wire 1 E! rx_d [1] $end
$var wire 1 F! rx_d [0] $end
$var wire 1 G! data_from_gpo [7] $end
$var wire 1 H! data_from_gpo [6] $end
$var wire 1 I! data_from_gpo [5] $end
$var wire 1 J! data_from_gpo [4] $end
$var wire 1 K! data_from_gpo [3] $end
$var wire 1 L! data_from_gpo [2] $end
$var wire 1 M! data_from_gpo [1] $end
$var wire 1 N! data_from_gpo [0] $end
$var wire 1 O! data_from_led [7] $end
$var wire 1 P! data_from_led [6] $end
$var wire 1 Q! data_from_led [5] $end
$var wire 1 R! data_from_led [4] $end
$var wire 1 S! data_from_led [3] $end
$var wire 1 T! data_from_led [2] $end
$var wire 1 U! data_from_led [1] $end
$var wire 1 V! data_from_led [0] $end
$var wire 1 W! data_from_dac [7] $end
$var wire 1 X! data_from_dac [6] $end
$var wire 1 Y! data_from_dac [5] $end
$var wire 1 Z! data_from_dac [4] $end
$var wire 1 [! data_from_dac [3] $end
$var wire 1 \! data_from_dac [2] $end
$var wire 1 ]! data_from_dac [1] $end
$var wire 1 ^! data_from_dac [0] $end
$var reg 8 _! data_to_gpo [7:0] $end
$var reg 8 `! data_to_led [7:0] $end
$var reg 8 a! data_to_dac [7:0] $end
$var reg 1 b! tx_en $end
$upscope $end
$upscope $end

$scope module regwrap $end
$var wire 1 c! clk $end
$var wire 1 d! reset_n $end
$var reg 1 e! rx_en_gpo $end
$var reg 1 f! rx_en_led $end
$var reg 1 g! rx_en_dac $end
$var reg 1 h! tx_en_gpo $end
$var reg 1 i! tx_en_led $end
$var reg 1 j! tx_en_dac $end
$var reg 8 k! tx_d [7:0] $end
$var wire 1 l! reg_addr [6] $end
$var wire 1 m! reg_addr [5] $end
$var wire 1 n! reg_addr [4] $end
$var wire 1 o! reg_addr [3] $end
$var wire 1 p! reg_addr [2] $end
$var wire 1 q! reg_addr [1] $end
$var wire 1 r! reg_addr [0] $end
$var wire 1 s! addr_dv $end
$var wire 1 t! rxdv $end
$var wire 1 u! rw_out $end
$var wire 1 v! rx_d [7] $end
$var wire 1 w! rx_d [6] $end
$var wire 1 x! rx_d [5] $end
$var wire 1 y! rx_d [4] $end
$var wire 1 z! rx_d [3] $end
$var wire 1 {! rx_d [2] $end
$var wire 1 |! rx_d [1] $end
$var wire 1 }! rx_d [0] $end
$var wire 1 ~! data_from_gpo [7] $end
$var wire 1 !" data_from_gpo [6] $end
$var wire 1 "" data_from_gpo [5] $end
$var wire 1 #" data_from_gpo [4] $end
$var wire 1 $" data_from_gpo [3] $end
$var wire 1 %" data_from_gpo [2] $end
$var wire 1 &" data_from_gpo [1] $end
$var wire 1 '" data_from_gpo [0] $end
$var wire 1 (" data_from_led [7] $end
$var wire 1 )" data_from_led [6] $end
$var wire 1 *" data_from_led [5] $end
$var wire 1 +" data_from_led [4] $end
$var wire 1 ," data_from_led [3] $end
$var wire 1 -" data_from_led [2] $end
$var wire 1 ." data_from_led [1] $end
$var wire 1 /" data_from_led [0] $end
$var wire 1 0" data_from_dac [7] $end
$var wire 1 1" data_from_dac [6] $end
$var wire 1 2" data_from_dac [5] $end
$var wire 1 3" data_from_dac [4] $end
$var wire 1 4" data_from_dac [3] $end
$var wire 1 5" data_from_dac [2] $end
$var wire 1 6" data_from_dac [1] $end
$var wire 1 7" data_from_dac [0] $end
$var reg 8 8" data_to_gpo [7:0] $end
$var reg 8 9" data_to_led [7:0] $end
$var reg 8 :" data_to_dac [7:0] $end
$var reg 1 ;" tx_en $end
$upscope $end

$scope module spi_slave $end
$var parameter 32 <" pktsz $end
$var parameter 32 =" header $end
$var parameter 32 >" payload $end
$var parameter 32 ?" addrsz $end
$var wire 1 @" clk $end
$var wire 1 A" reset_n $end
$var wire 1 B" SCLK $end
$var wire 1 C" SSB $end
$var wire 1 D" MOSI $end
$var reg 1 E" MISO $end
$var wire 1 F" tx_d [7] $end
$var wire 1 G" tx_d [6] $end
$var wire 1 H" tx_d [5] $end
$var wire 1 I" tx_d [4] $end
$var wire 1 J" tx_d [3] $end
$var wire 1 K" tx_d [2] $end
$var wire 1 L" tx_d [1] $end
$var wire 1 M" tx_d [0] $end
$var wire 1 N" tx_en $end
$var reg 7 O" reg_addr [6:0] $end
$var reg 1 P" addr_dv $end
$var reg 8 Q" rx_d [7:0] $end
$var reg 1 R" rxdv $end
$var reg 1 S" rw_out $end
$var reg 3 T" sync_sclk [2:0] $end
$var reg 3 U" sync_ss [2:0] $end
$var reg 2 V" sync_mosi [1:0] $end
$var reg 2 W" sync_tx_en [1:0] $end
$var reg 5 X" bitcnt [4:0] $end
$var reg 1 Y" rw $end
$var reg 1 Z" mosi $end
$var reg 1 [" sclk $end
$var reg 1 \" ssb $end
$var reg 1 ]" sync_sclk_re $end
$var reg 1 ^" sync_sclk_fe $end
$var reg 1 _" tx_en_re $end
$var reg 1 `" spi_start $end
$var reg 1 a" spi_end $end
$var reg 1 b" spi_active $end
$var reg 1 c" d_i $end
$var reg 8 d" d_o [7:0] $end
$var wire 1 e" txdv $end
$upscope $end

$scope module tx_dac_fsm $end
$var parameter 15 f" symbol $end
$var wire 1 g" clk $end
$var wire 1 h" reset_n $end
$var wire 1 i" rd_en $end
$var wire 1 j" wr_en $end
$var wire 1 k" dacreg_data_in [7] $end
$var wire 1 l" dacreg_data_in [6] $end
$var wire 1 m" dacreg_data_in [5] $end
$var wire 1 n" dacreg_data_in [4] $end
$var wire 1 o" dacreg_data_in [3] $end
$var wire 1 p" dacreg_data_in [2] $end
$var wire 1 q" dacreg_data_in [1] $end
$var wire 1 r" dacreg_data_in [0] $end
$var wire 1 s" dacreg_data_out [7] $end
$var wire 1 t" dacreg_data_out [6] $end
$var wire 1 u" dacreg_data_out [5] $end
$var wire 1 v" dacreg_data_out [4] $end
$var wire 1 w" dacreg_data_out [3] $end
$var wire 1 x" dacreg_data_out [2] $end
$var wire 1 y" dacreg_data_out [1] $end
$var wire 1 z" dacreg_data_out [0] $end
$var reg 2 {" to_lvds [1:0] $end
$var reg 8 |" dac_config_reg [7:0] $end
$var reg 1 }" tx_en $end
$var reg 4 ~" state_reg [3:0] $end
$var reg 4 !# next_state [3:0] $end
$var reg 6 "# zctr [5:0] $end
$var reg 6 ## dctr [5:0] $end
$var reg 1 $# dctr_en $end
$var reg 1 %# zctr_en $end
$var reg 1 &# ld_sym $end
$var reg 2 '# data_out [1:0] $end
$var reg 1 (# curr_sym $end
$var reg 5 )# sym_ctr [4:0] $end
$var reg 4 *# sym_pos [3:0] $end
$upscope $end

$scope begin std $end
$upscope $end
$enddefinitions $end
#0
$dumpvars
x!
x"
x#
x$
x%
x&
b0 '
bx (
x)
bx *
x+
bx ,
bx -
bx .
bx /
bx 0
bx 1
bx 2
bx 3
bx T
bx U
xV
bx W
b0 X
bx Y
bx Z
x[
x\
x]
bx ^
x_
bx `
bx a
xk
bx t
xu
bx v
xw
xx
bx y
bx z
bx {
bx |
bx }
x~
x!!
x"!
x#!
x$!
x%!
x&!
x'!
x(!
x)!
x*!
bx +!
x/!
x0!
x1!
x2!
x3!
x4!
b0 5!
bx _!
bx `!
bx a!
0b!
bx <
bx =
bx ?
xe!
xf!
xg!
xh!
xi!
xj!
b0 k!
bx 8"
bx 9"
bx :"
0;"
xE"
bx O"
xP"
bx Q"
xR"
xS"
bx T"
bx U"
bx V"
bx W"
bx X"
xY"
zZ"
z["
z\"
x]"
x^"
x_"
x`"
xa"
xb"
xc"
bx d"
bx {"
bx |"
x}"
bx ~"
b0 !#
bx "#
bx ##
x$#
x%#
x&#
bx '#
x(#
bx )#
bx *#
b111101011001000 A
b10000 b
b1000 c
b1000 d
b111 e
b10000 <"
b1000 ="
b1000 >"
b111 ?"
b111101011001000 f"
b0 >
b0 @
x4
x5
06
x7
x,!
x8
x9
x:
x;
xe"
xB
xC
xK
xJ
xI
xH
xG
xF
xE
xD
xS
xR
xQ
xP
xO
xN
xM
xL
xf
xg
xh
xi
xj
0s
0r
0q
0p
0o
0n
0m
0l
x-!
x.!
x<!
x;!
x:!
x9!
x8!
x7!
x6!
x=!
x>!
xF!
xE!
xD!
xC!
xB!
xA!
x@!
x?!
xN!
xM!
xL!
xK!
xJ!
xI!
xH!
xG!
xV!
xU!
xT!
xS!
xR!
xQ!
xP!
xO!
x^!
x]!
x\!
x[!
xZ!
xY!
xX!
xW!
zc!
zd!
zr!
zq!
zp!
zo!
zn!
zm!
zl!
zs!
zt!
zu!
z}!
z|!
z{!
zz!
zy!
zx!
zw!
zv!
z'"
z&"
z%"
z$"
z#"
z""
z!"
z~!
z/"
z."
z-"
z,"
z+"
z*"
z)"
z("
z7"
z6"
z5"
z4"
z3"
z2"
z1"
z0"
z@"
zA"
zB"
zC"
zD"
zM"
zL"
zK"
zJ"
zI"
zH"
zG"
zF"
zN"
zg"
zh"
zi"
zj"
zr"
zq"
zp"
zo"
zn"
zm"
zl"
zk"
xz"
xy"
xx"
xw"
xv"
xu"
xt"
xs"
$end
#3
0!
0-!
0f
0B
#15
1!
1-!
1f
1B
b0 W
b0 Y
b0 Z
bx0 |
b0 +!
0k
0&!
0&
0]
0[
0\
b0 ^
b0 T
b0 3
#30
0!
0-!
0f
0B
#43
0"
0.!
0g
0C
b0 U
b0 `
b0 a
b0 y
b111 z
b0 {
b0 |
b0 }
0~
b0 t
b0 v
0u
0w
0+
0)
b0 *
b0 (
0x
0*!
0'!
0(!
0)!
0%!
0$!
1_
0V
0S
0R
0Q
0P
0O
0N
0M
0L
0,!
b0 1
0>!
0=!
0<!
0;!
0:!
09!
08!
07!
06!
0F!
0E!
0D!
0C!
0B!
0A!
0@!
0?!
07
b0 _!
b0 `!
b0 a!
02!
03!
04!
0/!
00!
01!
b0 0
b0 /
b0 .
0:
0;
04
08
09
05
0K
0J
0I
0H
0G
0F
0E
0D
0^!
0]!
0\!
0[!
0Z!
0Y!
0X!
0W!
#45
1!
1-!
1f
1B
#60
0!
0-!
0f
0B
#75
1!
1-!
1f
1B
#83
0%
0j
0!!
#90
0!
0-!
0f
0B
#105
1!
1-!
1f
1B
#120
0!
0-!
0f
0B
#135
1!
1-!
1f
1B
#150
0!
0-!
0f
0B
#165
1!
1-!
1f
1B
#171
1"
1.!
1g
1C
#180
0!
0-!
0f
0B
#195
1!
1-!
1f
1B
b0x y
b11x z
#210
0!
0-!
0f
0B
#221
1%
1j
1!!
#225
1!
1-!
1f
1B
b0xx y
b1xx z
b1 {
x'!
x)!
x$!
#240
0!
0-!
0f
0B
#255
1!
1-!
1f
1B
bx y
bx z
b11 {
1*!
x(!
x%!
#270
0!
0-!
0f
0B
#271
b100011000000001 ?
#272
1$
0%
1i
0j
0!!
1#!
#277
0#
b0 ,
0h
0"!
#285
1!
1-!
1f
1B
bx0 y
bx1 z
b10 {
#300
0!
0-!
0f
0B
#315
1!
1-!
1f
1B
bx00 y
bx11 z
b0 {
0*!
0'!
0)!
0$!
#317
0$
0i
0#!
#330
0!
0-!
0f
0B
#345
1!
1-!
1f
1B
b0 y
b110 z
0(!
0%!
#360
0!
0-!
0f
0B
#375
1!
1-!
1f
1B
b100 z
1'!
1)!
#390
0!
0-!
0f
0B
#405
1!
1-!
1f
1B
b0 z
0'!
#420
0!
0-!
0f
0B
#427
1#
b1 @
1h
1"!
#435
1!
1-!
1f
1B
b1 y
#450
0!
0-!
0f
0B
#465
1!
1-!
1f
1B
b11 y
1$!
#480
0!
0-!
0f
0B
#482
0#
1%
b1 ,
0h
1j
1!!
0"!
#495
1!
1-!
1f
1B
b110 y
b1 {
b1 }
0$!
#510
0!
0-!
0f
0B
#525
1!
1-!
1f
1B
b100 y
b11 {
1*!
1%!
#537
1#
b10 @
1h
1"!
#540
0!
0-!
0f
0B
#555
1!
1-!
1f
1B
b1 y
0%!
#570
0!
0-!
0f
0B
#585
1!
1-!
1f
1B
b11 y
1$!
#592
0#
0%
b10 ,
0h
0j
0!!
0"!
#600
0!
0-!
0f
0B
#615
1!
1-!
1f
1B
b110 y
b10 {
b10 }
b1 t
b1 (
0$!
1<!
#630
0!
0-!
0f
0B
#645
1!
1-!
1f
1B
b100 y
b0 {
0*!
1%!
#647
1#
b11 @
1h
1"!
#660
0!
0-!
0f
0B
#675
1!
1-!
1f
1B
b1 y
0%!
#690
0!
0-!
0f
0B
#702
0#
b100 ,
0h
0"!
#705
1!
1-!
1f
1B
b10 y
1$!
#720
0!
0-!
0f
0B
#735
1!
1-!
1f
1B
b100 y
b11 }
b10 t
b10 (
1%!
0$!
0<!
1;!
#750
0!
0-!
0f
0B
#757
1#
b100 @
1h
1"!
#765
1!
1-!
1f
1B
b1 y
0%!
#780
0!
0-!
0f
0B
#795
1!
1-!
1f
1B
b11 y
1$!
#810
0!
0-!
0f
0B
#812
0#
b1000 ,
0h
0"!
#825
1!
1-!
1f
1B
b110 y
b100 }
b100 t
b100 (
0$!
0;!
1:!
#840
0!
0-!
0f
0B
#855
1!
1-!
1f
1B
b100 y
1%!
#867
1#
b101 @
1h
1"!
#870
0!
0-!
0f
0B
#885
1!
1-!
1f
1B
b1 y
0%!
#900
0!
0-!
0f
0B
#915
1!
1-!
1f
1B
b11 y
1$!
#922
0#
1%
b10001 ,
0h
1j
1!!
0"!
#930
0!
0-!
0f
0B
#945
1!
1-!
1f
1B
b110 y
b1 {
b101 }
b1000 t
b1000 (
0$!
0:!
19!
#960
0!
0-!
0f
0B
#975
1!
1-!
1f
1B
b100 y
b11 {
1*!
1%!
#977
1#
b110 @
1h
1"!
#990
0!
0-!
0f
0B
#1005
1!
1-!
1f
1B
b1 y
0%!
#1020
0!
0-!
0f
0B
#1032
0#
b100011 ,
0h
0"!
#1035
1!
1-!
1f
1B
b10 y
1$!
#1050
0!
0-!
0f
0B
#1065
1!
1-!
1f
1B
b100 y
b110 }
b10001 t
b10001 (
1%!
0$!
1<!
09!
18!
#1080
0!
0-!
0f
0B
#1087
1#
b111 @
1h
1"!
#1095
1!
1-!
1f
1B
b1 y
0%!
#1110
0!
0-!
0f
0B
#1125
1!
1-!
1f
1B
b11 y
1$!
#1140
0!
0-!
0f
0B
#1142
0#
0%
b1000110 ,
0h
0j
0!!
0"!
#1155
1!
1-!
1f
1B
b110 y
b10 {
b111 }
b100011 t
b100011 (
0$!
1;!
08!
17!
#1170
0!
0-!
0f
0B
#1185
1!
1-!
1f
1B
b100 y
b0 {
1u
1)
0*!
1%!
1=!
#1197
1#
b1000 @
b0 ,
1h
1"!
#1200
0!
0-!
0f
0B
#1215
1!
1-!
1f
1B
b1 y
0%!
#1230
0!
0-!
0f
0B
#1245
1!
1-!
1f
1B
b11 y
1$!
#1252
0#
0h
0"!
#1260
0!
0-!
0f
0B
#1275
1!
1-!
1f
1B
b110 y
b1000 }
b1000110 t
b1000110 (
0$!
0<!
1:!
07!
16!
#1290
0!
0-!
0f
0B
#1305
1!
1-!
1f
1B
b100 y
1%!
#1307
1#
1h
1"!
#1320
0!
0-!
0f
0B
#1335
1!
1-!
1f
1B
b1 y
0%!
#1350
0!
0-!
0f
0B
#1362
b1001 @
#1365
1!
1-!
1f
1B
b11 y
1$!
#1380
0!
0-!
0f
0B
#1395
1!
1-!
1f
1B
b111 y
b1001 }
0$!
#1410
0!
0-!
0f
0B
#1417
0#
0h
0"!
#1425
1!
1-!
1f
1B
b110 y
#1440
0!
0-!
0f
0B
#1455
1!
1-!
1f
1B
b100 y
1%!
#1470
0!
0-!
0f
0B
#1472
1#
1h
1"!
#1485
1!
1-!
1f
1B
b1 y
0%!
#1500
0!
0-!
0f
0B
#1515
1!
1-!
1f
1B
b11 y
1$!
#1527
b1010 @
#1530
0!
0-!
0f
0B
#1545
1!
1-!
1f
1B
b111 y
b1010 }
0$!
#1560
0!
0-!
0f
0B
#1575
1!
1-!
1f
1B
#1582
0#
0h
0"!
#1590
0!
0-!
0f
0B
#1605
1!
1-!
1f
1B
b110 y
#1620
0!
0-!
0f
0B
#1635
1!
1-!
1f
1B
b100 y
1%!
#1637
1#
1h
1"!
#1650
0!
0-!
0f
0B
#1665
1!
1-!
1f
1B
b1 y
0%!
#1680
0!
0-!
0f
0B
#1692
b1011 @
#1695
1!
1-!
1f
1B
b11 y
1$!
#1710
0!
0-!
0f
0B
#1725
1!
1-!
1f
1B
b111 y
b1011 }
0$!
#1740
0!
0-!
0f
0B
#1747
0#
0h
0"!
#1755
1!
1-!
1f
1B
b110 y
#1770
0!
0-!
0f
0B
#1785
1!
1-!
1f
1B
b100 y
1%!
#1800
0!
0-!
0f
0B
#1802
1#
1h
1"!
#1815
1!
1-!
1f
1B
b1 y
0%!
#1830
0!
0-!
0f
0B
#1845
1!
1-!
1f
1B
b11 y
1$!
#1857
b1100 @
#1860
0!
0-!
0f
0B
#1875
1!
1-!
1f
1B
b111 y
b1100 }
0$!
#1890
0!
0-!
0f
0B
#1905
1!
1-!
1f
1B
#1912
0#
0h
0"!
#1920
0!
0-!
0f
0B
#1935
1!
1-!
1f
1B
b110 y
#1950
0!
0-!
0f
0B
#1965
1!
1-!
1f
1B
b100 y
1%!
#1967
1#
1h
1"!
#1980
0!
0-!
0f
0B
#1995
1!
1-!
1f
1B
b1 y
0%!
#2010
0!
0-!
0f
0B
#2022
b1101 @
#2025
1!
1-!
1f
1B
b11 y
1$!
#2040
0!
0-!
0f
0B
#2055
1!
1-!
1f
1B
b111 y
b1101 }
0$!
#2070
0!
0-!
0f
0B
#2077
0#
0h
0"!
#2085
1!
1-!
1f
1B
b110 y
#2100
0!
0-!
0f
0B
#2115
1!
1-!
1f
1B
b100 y
1%!
#2130
0!
0-!
0f
0B
#2132
1#
1h
1"!
#2145
1!
1-!
1f
1B
b1 y
0%!
#2160
0!
0-!
0f
0B
#2175
1!
1-!
1f
1B
b11 y
1$!
#2187
b1110 @
#2190
0!
0-!
0f
0B
#2205
1!
1-!
1f
1B
b111 y
b1110 }
0$!
#2220
0!
0-!
0f
0B
#2235
1!
1-!
1f
1B
#2242
0#
0h
0"!
#2250
0!
0-!
0f
0B
#2265
1!
1-!
1f
1B
b110 y
#2280
0!
0-!
0f
0B
#2295
1!
1-!
1f
1B
b100 y
1%!
#2297
1#
1h
1"!
#2310
0!
0-!
0f
0B
#2325
1!
1-!
1f
1B
b1 y
0%!
#2340
0!
0-!
0f
0B
#2352
b1111 @
#2355
1!
1-!
1f
1B
b11 y
1$!
#2370
0!
0-!
0f
0B
#2385
1!
1-!
1f
1B
b111 y
b1111 }
0$!
#2400
0!
0-!
0f
0B
#2407
0#
0h
0"!
#2415
1!
1-!
1f
1B
b110 y
#2430
0!
0-!
0f
0B
#2445
1!
1-!
1f
1B
b100 y
1%!
#2460
0!
0-!
0f
0B
#2462
1#
1%
b1 ,
1h
1j
1!!
1"!
#2475
1!
1-!
1f
1B
b1 y
b1 {
0%!
#2490
0!
0-!
0f
0B
#2505
1!
1-!
1f
1B
b11 y
b11 {
1*!
1$!
#2517
b10000 @
0%
0j
0!!
#2520
0!
0-!
0f
0B
#2535
1!
1-!
1f
1B
b111 y
b10 {
b10000 }
b1 v
1w
1+
b1 *
0$!
1>!
1F!
11!
b1 a!
15
b1 0
1K
#2550
0!
0-!
0f
0B
#2565
1!
1-!
1f
1B
b1 U
b0 {
0*!
1V
b1 X
#2567
0#
0h
0"!
#2580
0!
0-!
0f
0B
#2595
1!
1-!
1f
1B
b1 W
b110 y
1\
#2610
0!
0-!
0f
0B
#2625
1!
1-!
1f
1B
b1 Y
b100 y
1%!
#2640
0!
0-!
0f
0B
#2655
1!
1-!
1f
1B
b10 Y
b0 y
0%!
#2667
1$
1i
1#!
#2670
0!
0-!
0f
0B
#2685
1!
1-!
1f
1B
b11 Y
b1 z
#2700
0!
0-!
0f
0B
#2715
1!
1-!
1f
1B
b100 Y
b11 z
1(!
0)!
#2730
0!
0-!
0f
0B
#2745
1!
1-!
1f
1B
b101 Y
b111 z
0u
0w
0+
0)
0(!
0>!
0=!
01!
b0 a!
05
b0 0
0K
#2760
0!
0-!
0f
0B
#2775
1!
1-!
1f
1B
b110 Y
1u
1)
1=!
#2790
0!
0-!
0f
0B
#2805
1!
1-!
1f
1B
b111 Y
#2820
0!
0-!
0f
0B
#2835
1!
1-!
1f
1B
b1000 Y
#2850
0!
0-!
0f
0B
#2865
1!
1-!
1f
1B
b1001 Y
#2880
0!
0-!
0f
0B
#2895
1!
1-!
1f
1B
b1010 Y
#2910
0!
0-!
0f
0B
#2925
1!
1-!
1f
1B
b1011 Y
#2940
0!
0-!
0f
0B
#2955
1!
1-!
1f
1B
b1100 Y
#2970
0!
0-!
0f
0B
#2985
1!
1-!
1f
1B
b1101 Y
#3000
0!
0-!
0f
0B
#3015
1!
1-!
1f
1B
b1110 Y
#3030
0!
0-!
0f
0B
#3045
1!
1-!
1f
1B
b1111 Y
#3060
0!
0-!
0f
0B
#3075
1!
1-!
1f
1B
b11 `
b10000 Y
b10 X
#3090
0!
0-!
0f
0B
#3105
1!
1-!
1f
1B
b10 W
b10001 Y
b11 X
1]
0\
b1 ^
b1 T
b1 3
#3120
0!
0-!
0f
0B
#3135
1!
1-!
1f
1B
b11 W
b0 Y
b100 X
0]
1[
b10 ^
b10 T
b10 3
#3150
0!
0-!
0f
0B
#3165
1!
1-!
1f
1B
b100 W
b1 Z
b0 ^
b0 T
b0 3
#3180
0!
0-!
0f
0B
#3195
1!
1-!
1f
1B
b10 Z
#3210
0!
0-!
0f
0B
#3225
1!
1-!
1f
1B
b11 Z
#3240
0!
0-!
0f
0B
#3255
1!
1-!
1f
1B
b100 Z
#3270
0!
0-!
0f
0B
#3285
1!
1-!
1f
1B
b101 Z
b101 X
#3300
0!
0-!
0f
0B
#3315
1!
1-!
1f
1B
b101 W
b110 Z
b1000 X
b11 ^
b11 T
b11 3
#3330
0!
0-!
0f
0B
#3345
1!
1-!
1f
1B
b1000 W
b111 Z
b1001 X
b10 ^
b10 T
b10 3
#3360
0!
0-!
0f
0B
#3375
1!
1-!
1f
1B
b1001 W
b1000 Z
b0 ^
b0 T
b0 3
#3390
0!
0-!
0f
0B
#3405
1!
1-!
1f
1B
b1001 Z
#3420
0!
0-!
0f
0B
#3435
1!
1-!
1f
1B
b1010 Z
#3450
0!
0-!
0f
0B
#3465
1!
1-!
1f
1B
b1011 Z
#3480
0!
0-!
0f
0B
#3495
1!
1-!
1f
1B
b1100 Z
#3510
0!
0-!
0f
0B
#3525
1!
1-!
1f
1B
b1101 Z
#3540
0!
0-!
0f
0B
#3555
1!
1-!
1f
1B
b1110 Z
b10 X
#3570
0!
0-!
0f
0B
#3585
1!
1-!
1f
1B
b10 W
b1111 Z
b11 X
1]
0[
b1 ^
b1 T
b1 3
#3600
0!
0-!
0f
0B
#3615
1!
1-!
1f
1B
b110 `
b11 W
b0 Z
b100 X
0]
1[
b10 ^
b10 T
b10 3
#3630
0!
0-!
0f
0B
#3645
1!
1-!
1f
1B
b100 W
b1 Z
b0 ^
b0 T
b0 3
#3660
0!
0-!
0f
0B
#3675
1!
1-!
1f
1B
b10 Z
#3690
0!
0-!
0f
0B
#3705
1!
1-!
1f
1B
b11 Z
#3720
0!
0-!
0f
0B
#3735
1!
1-!
1f
1B
b100 Z
#3750
0!
0-!
0f
0B
#3765
1!
1-!
1f
1B
b101 Z
b101 X
#3780
0!
0-!
0f
0B
#3795
1!
1-!
1f
1B
b101 W
b110 Z
b1000 X
b11 ^
b11 T
b11 3
#3810
0!
0-!
0f
0B
#3825
1!
1-!
1f
1B
b1000 W
b111 Z
b1001 X
b10 ^
b10 T
b10 3
#3840
0!
0-!
0f
0B
#3855
1!
1-!
1f
1B
b1001 W
b1000 Z
b0 ^
b0 T
b0 3
#3870
0!
0-!
0f
0B
#3885
1!
1-!
1f
1B
b1001 Z
#3900
0!
0-!
0f
0B
#3915
1!
1-!
1f
1B
b1010 Z
#3930
0!
0-!
0f
0B
#3945
1!
1-!
1f
1B
b1011 Z
#3960
0!
0-!
0f
0B
#3975
1!
1-!
1f
1B
b1100 Z
#3990
0!
0-!
0f
0B
#4005
1!
1-!
1f
1B
b1101 Z
#4020
0!
0-!
0f
0B
#4035
1!
1-!
1f
1B
b1110 Z
b10 X
#4050
0!
0-!
0f
0B
#4065
1!
1-!
1f
1B
b10 W
b1111 Z
b11 X
1]
0[
b1 ^
b1 T
b1 3
#4080
0!
0-!
0f
0B
#4095
1!
1-!
1f
1B
b1001 `
b11 W
b0 Z
b100 X
0]
1[
b10 ^
b10 T
b10 3
